<?xml version="1.0" encoding="UTF-8"?>
<!DOCTYPE svg PUBLIC "-//W3C//DTD SVG 1.1//EN" "http://www.w3.org/Graphics/SVG/1.1/DTD/svg11.dtd">
<svg xmlns="http://www.w3.org/2000/svg" version="1.1" width="128px" height="128px" style="shape-rendering:geometricPrecision; text-rendering:geometricPrecision; image-rendering:optimizeQuality; fill-rule:evenodd; clip-rule:evenodd" xmlns:xlink="http://www.w3.org/1999/xlink">
<g><path style="opacity:0.934" fill="#000000" d="M 127.5,24.5 C 127.5,50.5 127.5,76.5 127.5,102.5C 124.531,110.976 118.865,117.142 110.5,121C 94.8844,122.136 79.2178,122.636 63.5,122.5C 47.7822,122.636 32.1156,122.136 16.5,121C 8.56131,117.23 2.89464,111.397 -0.5,103.5C -0.5,76.8333 -0.5,50.1667 -0.5,23.5C 3.38033,14.4575 10.047,8.29087 19.5,5C 48.8333,4.33333 78.1667,4.33333 107.5,5C 117.376,8.37759 124.043,14.8776 127.5,24.5 Z M 26.5,15.5 C 51.1689,15.3334 75.8356,15.5 100.5,16C 107.004,16.1758 111.671,19.1758 114.5,25C 101.208,39.2924 87.5418,53.2924 73.5,67C 66.8333,71.6667 60.1667,71.6667 53.5,67C 40,53.5 26.5,40 13,26.5C 12.3333,25.5 12.3333,24.5 13,23.5C 16.3626,18.6806 20.8626,16.0139 26.5,15.5 Z M 10.5,41.5 C 22.2985,52.798 33.9651,64.298 45.5,76C 57.5,84.6667 69.5,84.6667 81.5,76C 93,64.5 104.5,53 116,41.5C 116.667,60.5 116.667,79.5 116,98.5C 113.498,106.005 108.331,110.172 100.5,111C 75.8333,111.667 51.1667,111.667 26.5,111C 18.669,110.172 13.5023,106.005 11,98.5C 10.5001,79.5029 10.3334,60.5029 10.5,41.5 Z"/></g>
</svg>
